{
	"data": {
		"curPage": 1,
		"datas": [{
			"apkLink": "",
			"audit": 1,
			"author": "鸿洋",
			"canEdit": false,
			"chapterId": 408,
			"chapterName": "鸿洋",
			"collect": false,
			"courseId": 13,
			"desc": "",
			"descMd": "",
			"envelopePic": "",
			"fresh": true,
			"id": 12358,
			"link": "https://mp.weixin.qq.com/s/KQZStDBfhCg_M2a-YKNQdw",
			"niceDate": "15小时前",
			"niceShareDate": "56分钟前",
			"origin": "",
			"prefix": "",
			"projectLink": "",
			"publishTime": 1583942400000,
			"selfVisible": 0,
			"shareDate": 1583994793000,
			"shareUser": "",
			"superChapterId": 408,
			"superChapterName": "公众号",
			"tags": [{
				"name": "公众号",
				"url": "/wxarticle/list/408/1"
			}],
			"title": "Android 模仿微信读书文字左右对齐效果",
			"type": 0,
			"userId": -1,
			"visible": 1,
			"zan": 0
		}, {
			"apkLink": "",
			"audit": 1,
			"author": "鸿洋",
			"canEdit": false,
			"chapterId": 408,
			"chapterName": "鸿洋",
			"collect": false,
			"courseId": 13,
			"desc": "",
			"descMd": "",
			"envelopePic": "",
			"fresh": false,
			"id": 12357,
			"link": "https://mp.weixin.qq.com/s/4tMR7_sDIthzm0BXtICh-w",
			"niceDate": "1天前",
			"niceShareDate": "56分钟前",
			"origin": "",
			"prefix": "",
			"projectLink": "",
			"publishTime": 1583856000000,
			"selfVisible": 0,
			"shareDate": 1583994775000,
			"shareUser": "",
			"superChapterId": 408,
			"superChapterName": "公众号",
			"tags": [{
				"name": "公众号",
				"url": "/wxarticle/list/408/1"
			}],
			"title": "Google Fuchsia 进入测试阶段，对 Flutter 有啥影响？",
			"type": 0,
			"userId": -1,
			"visible": 1,
			"zan": 0
		}, {
			"apkLink": "",
			"audit": 1,
			"author": "鸿洋",
			"canEdit": false,
			"chapterId": 408,
			"chapterName": "鸿洋",
			"collect": false,
			"courseId": 13,
			"desc": "",
			"descMd": "",
			"envelopePic": "",
			"fresh": false,
			"id": 12356,
			"link": "https://mp.weixin.qq.com/s/IHZCKv9pDFr-TOjbP86YSg",
			"niceDate": "2天前",
			"niceShareDate": "56分钟前",
			"origin": "",
			"prefix": "",
			"projectLink": "",
			"publishTime": 1583769600000,
			"selfVisible": 0,
			"shareDate": 1583994756000,
			"shareUser": "",
			"superChapterId": 408,
			"superChapterName": "公众号",
			"tags": [{
				"name": "公众号",
				"url": "/wxarticle/list/408/1"
			}],
			"title": "推荐一个超实用的库",
			"type": 0,
			"userId": -1,
			"visible": 1,
			"zan": 0
		}, {
			"apkLink": "",
			"audit": 1,
			"author": "鸿洋",
			"canEdit": false,
			"chapterId": 408,
			"chapterName": "鸿洋",
			"collect": false,
			"courseId": 13,
			"desc": "",
			"descMd": "",
			"envelopePic": "",
			"fresh": false,
			"id": 12355,
			"link": "https://mp.weixin.qq.com/s/YPo89HmcbERgxzAjimpB2Q",
			"niceDate": "2020-03-09 00:00",
			"niceShareDate": "57分钟前",
			"origin": "",
			"prefix": "",
			"projectLink": "",
			"publishTime": 1583683200000,
			"selfVisible": 0,
			"shareDate": 1583994739000,
			"shareUser": "",
			"superChapterId": 408,
			"superChapterName": "公众号",
			"tags": [{
				"name": "公众号",
				"url": "/wxarticle/list/408/1"
			}],
			"title": "给大家分享 3 个Android 问题",
			"type": 0,
			"userId": -1,
			"visible": 1,
			"zan": 0
		}, {
			"apkLink": "",
			"audit": 1,
			"author": "鸿洋",
			"canEdit": false,
			"chapterId": 408,
			"chapterName": "鸿洋",
			"collect": false,
			"courseId": 13,
			"desc": "",
			"descMd": "",
			"envelopePic": "",
			"fresh": false,
			"id": 12354,
			"link": "https://mp.weixin.qq.com/s/i_DAU1tdRLIgbSHGLe7ztw",
			"niceDate": "2020-03-06 00:00",
			"niceShareDate": "57分钟前",
			"origin": "",
			"prefix": "",
			"projectLink": "",
			"publishTime": 1583424000000,
			"selfVisible": 0,
			"shareDate": 1583994721000,
			"shareUser": "",
			"superChapterId": 408,
			"superChapterName": "公众号",
			"tags": [{
				"name": "公众号",
				"url": "/wxarticle/list/408/1"
			}],
			"title": "唠点儿你不一定知道的Android小知识",
			"type": 0,
			"userId": -1,
			"visible": 1,
			"zan": 0
		}, {
			"apkLink": "",
			"audit": 1,
			"author": "鸿洋",
			"canEdit": false,
			"chapterId": 408,
			"chapterName": "鸿洋",
			"collect": false,
			"courseId": 13,
			"desc": "",
			"descMd": "",
			"envelopePic": "",
			"fresh": false,
			"id": 12353,
			"link": "https://mp.weixin.qq.com/s/1fRcPeftZnmrVAQXToSULQ",
			"niceDate": "2020-03-04 00:00",
			"niceShareDate": "57分钟前",
			"origin": "",
			"prefix": "",
			"projectLink": "",
			"publishTime": 1583251200000,
			"selfVisible": 0,
			"shareDate": 1583994701000,
			"shareUser": "",
			"superChapterId": 408,
			"superChapterName": "公众号",
			"tags": [{
				"name": "公众号",
				"url": "/wxarticle/list/408/1"
			}],
			"title": "给大家推荐一个库",
			"type": 0,
			"userId": -1,
			"visible": 1,
			"zan": 0
		}, {
			"apkLink": "",
			"audit": 1,
			"author": "鸿洋",
			"canEdit": false,
			"chapterId": 408,
			"chapterName": "鸿洋",
			"collect": false,
			"courseId": 13,
			"desc": "",
			"descMd": "",
			"envelopePic": "",
			"fresh": false,
			"id": 12352,
			"link": "https://mp.weixin.qq.com/s/bBdzJMzRoBDUVeeLFd4z2w",
			"niceDate": "2020-03-02 00:00",
			"niceShareDate": "57分钟前",
			"origin": "",
			"prefix": "",
			"projectLink": "",
			"publishTime": 1583078400000,
			"selfVisible": 0,
			"shareDate": 1583994685000,
			"shareUser": "",
			"superChapterId": 408,
			"superChapterName": "公众号",
			"tags": [{
				"name": "公众号",
				"url": "/wxarticle/list/408/1"
			}],
			"title": "学不动也要学！探究Fragment延迟加载的前世今生",
			"type": 0,
			"userId": -1,
			"visible": 1,
			"zan": 0
		}, {
			"apkLink": "",
			"audit": 1,
			"author": "鸿洋",
			"canEdit": false,
			"chapterId": 408,
			"chapterName": "鸿洋",
			"collect": false,
			"courseId": 13,
			"desc": "",
			"descMd": "",
			"envelopePic": "",
			"fresh": false,
			"id": 12351,
			"link": "https://mp.weixin.qq.com/s/4RsfW5AO-Ww-isfOmIMSsw",
			"niceDate": "2020-03-01 00:00",
			"niceShareDate": "58分钟前",
			"origin": "",
			"prefix": "",
			"projectLink": "",
			"publishTime": 1582992000000,
			"selfVisible": 0,
			"shareDate": 1583994664000,
			"shareUser": "",
			"superChapterId": 408,
			"superChapterName": "公众号",
			"tags": [{
				"name": "公众号",
				"url": "/wxarticle/list/408/1"
			}],
			"title": "Flutter 初学者到底需要怎样的Demo?",
			"type": 0,
			"userId": -1,
			"visible": 1,
			"zan": 0
		}, {
			"apkLink": "",
			"audit": 1,
			"author": "鸿洋",
			"canEdit": false,
			"chapterId": 408,
			"chapterName": "鸿洋",
			"collect": false,
			"courseId": 13,
			"desc": "",
			"descMd": "",
			"envelopePic": "",
			"fresh": false,
			"id": 12350,
			"link": "https://mp.weixin.qq.com/s/0GirQaeGdR_yyGo8xt9pCg",
			"niceDate": "2020-02-27 00:00",
			"niceShareDate": "58分钟前",
			"origin": "",
			"prefix": "",
			"projectLink": "",
			"publishTime": 1582732800000,
			"selfVisible": 0,
			"shareDate": 1583994646000,
			"shareUser": "",
			"superChapterId": 408,
			"superChapterName": "公众号",
			"tags": [{
				"name": "公众号",
				"url": "/wxarticle/list/408/1"
			}],
			"title": "Android Studio 3.6 发布啦，快来围观",
			"type": 0,
			"userId": -1,
			"visible": 1,
			"zan": 0
		}, {
			"apkLink": "",
			"audit": 1,
			"author": "鸿洋",
			"canEdit": false,
			"chapterId": 408,
			"chapterName": "鸿洋",
			"collect": false,
			"courseId": 13,
			"desc": "",
			"descMd": "",
			"envelopePic": "",
			"fresh": false,
			"id": 12096,
			"link": "https://mp.weixin.qq.com/s/0lgYPvwL1B6ohvKoBHC0oQ",
			"niceDate": "2020-02-26 00:00",
			"niceShareDate": "2020-02-26 19:58",
			"origin": "",
			"prefix": "",
			"projectLink": "",
			"publishTime": 1582646400000,
			"selfVisible": 0,
			"shareDate": 1582718335000,
			"shareUser": "",
			"superChapterId": 408,
			"superChapterName": "公众号",
			"tags": [{
				"name": "公众号",
				"url": "/wxarticle/list/408/1"
			}],
			"title": "&ldquo;吹上天&rdquo;的Kotlin协程 要不看下实战？",
			"type": 0,
			"userId": -1,
			"visible": 1,
			"zan": 0
		}, {
			"apkLink": "",
			"audit": 1,
			"author": "鸿洋",
			"canEdit": false,
			"chapterId": 408,
			"chapterName": "鸿洋",
			"collect": false,
			"courseId": 13,
			"desc": "",
			"descMd": "",
			"envelopePic": "",
			"fresh": false,
			"id": 12095,
			"link": "https://mp.weixin.qq.com/s/njTegMDRonCpguCPPxfE7g",
			"niceDate": "2020-02-24 00:00",
			"niceShareDate": "2020-02-26 19:58",
			"origin": "",
			"prefix": "",
			"projectLink": "",
			"publishTime": 1582473600000,
			"selfVisible": 0,
			"shareDate": 1582718315000,
			"shareUser": "",
			"superChapterId": 408,
			"superChapterName": "公众号",
			"tags": [{
				"name": "公众号",
				"url": "/wxarticle/list/408/1"
			}],
			"title": "&ldquo;新技术&rdquo; 又来了？",
			"type": 0,
			"userId": -1,
			"visible": 1,
			"zan": 0
		}, {
			"apkLink": "",
			"audit": 1,
			"author": "鸿洋",
			"canEdit": false,
			"chapterId": 408,
			"chapterName": "鸿洋",
			"collect": false,
			"courseId": 13,
			"desc": "",
			"descMd": "",
			"envelopePic": "",
			"fresh": false,
			"id": 12094,
			"link": "https://mp.weixin.qq.com/s/zx439XBaZJneXZAhlF2mEQ",
			"niceDate": "2020-02-21 00:00",
			"niceShareDate": "2020-02-26 19:58",
			"origin": "",
			"prefix": "",
			"projectLink": "",
			"publishTime": 1582214400000,
			"selfVisible": 0,
			"shareDate": 1582718287000,
			"shareUser": "",
			"superChapterId": 408,
			"superChapterName": "公众号",
			"tags": [{
				"name": "公众号",
				"url": "/wxarticle/list/408/1"
			}],
			"title": "ViewStub你肯定听过，但是这些细节了解吗？",
			"type": 0,
			"userId": -1,
			"visible": 1,
			"zan": 0
		}, {
			"apkLink": "",
			"audit": 1,
			"author": "鸿洋",
			"canEdit": false,
			"chapterId": 408,
			"chapterName": "鸿洋",
			"collect": false,
			"courseId": 13,
			"desc": "",
			"descMd": "",
			"envelopePic": "",
			"fresh": false,
			"id": 12093,
			"link": "https://mp.weixin.qq.com/s/bkHP-BiwTeQhqKvze2jtdQ",
			"niceDate": "2020-02-19 00:00",
			"niceShareDate": "2020-02-26 19:57",
			"origin": "",
			"prefix": "",
			"projectLink": "",
			"publishTime": 1582041600000,
			"selfVisible": 0,
			"shareDate": 1582718269000,
			"shareUser": "",
			"superChapterId": 408,
			"superChapterName": "公众号",
			"tags": [{
				"name": "公众号",
				"url": "/wxarticle/list/408/1"
			}],
			"title": "Android 黑科技保活实现原理揭秘",
			"type": 0,
			"userId": -1,
			"visible": 1,
			"zan": 0
		}, {
			"apkLink": "",
			"audit": 1,
			"author": "鸿洋",
			"canEdit": false,
			"chapterId": 408,
			"chapterName": "鸿洋",
			"collect": false,
			"courseId": 13,
			"desc": "",
			"descMd": "",
			"envelopePic": "",
			"fresh": false,
			"id": 12092,
			"link": "https://mp.weixin.qq.com/s/5pKJHsFJqdnJp93ohfHr4g",
			"niceDate": "2020-02-18 00:00",
			"niceShareDate": "2020-02-26 19:57",
			"origin": "",
			"prefix": "",
			"projectLink": "",
			"publishTime": 1581955200000,
			"selfVisible": 0,
			"shareDate": 1582718250000,
			"shareUser": "",
			"superChapterId": 408,
			"superChapterName": "公众号",
			"tags": [{
				"name": "公众号",
				"url": "/wxarticle/list/408/1"
			}],
			"title": "这交互炸了 第十六式 之 空中楼阁",
			"type": 0,
			"userId": -1,
			"visible": 1,
			"zan": 0
		}, {
			"apkLink": "",
			"audit": 1,
			"author": "鸿洋",
			"canEdit": false,
			"chapterId": 408,
			"chapterName": "鸿洋",
			"collect": false,
			"courseId": 13,
			"desc": "",
			"descMd": "",
			"envelopePic": "",
			"fresh": false,
			"id": 11981,
			"link": "https://mp.weixin.qq.com/s/Eh-OOqZ_WuKj4fmB_czS_w",
			"niceDate": "2020-02-16 00:00",
			"niceShareDate": "2020-02-16 13:56",
			"origin": "",
			"prefix": "",
			"projectLink": "",
			"publishTime": 1581782400000,
			"selfVisible": 0,
			"shareDate": 1581832601000,
			"shareUser": "",
			"superChapterId": 408,
			"superChapterName": "公众号",
			"tags": [{
				"name": "公众号",
				"url": "/wxarticle/list/408/1"
			}],
			"title": "Android 后台运行白名单，优雅实现保活",
			"type": 0,
			"userId": -1,
			"visible": 1,
			"zan": 0
		}, {
			"apkLink": "",
			"audit": 1,
			"author": "鸿洋",
			"canEdit": false,
			"chapterId": 408,
			"chapterName": "鸿洋",
			"collect": false,
			"courseId": 13,
			"desc": "",
			"descMd": "",
			"envelopePic": "",
			"fresh": false,
			"id": 11980,
			"link": "https://mp.weixin.qq.com/s/ZW2YnjYJRoiU_f9aPuzx5Q",
			"niceDate": "2020-02-15 00:00",
			"niceShareDate": "2020-02-16 13:56",
			"origin": "",
			"prefix": "",
			"projectLink": "",
			"publishTime": 1581696000000,
			"selfVisible": 0,
			"shareDate": 1581832578000,
			"shareUser": "",
			"superChapterId": 408,
			"superChapterName": "公众号",
			"tags": [{
				"name": "公众号",
				"url": "/wxarticle/list/408/1"
			}],
			"title": "你要的都给你吧！",
			"type": 0,
			"userId": -1,
			"visible": 1,
			"zan": 0
		}, {
			"apkLink": "",
			"audit": 1,
			"author": "鸿洋",
			"canEdit": false,
			"chapterId": 408,
			"chapterName": "鸿洋",
			"collect": false,
			"courseId": 13,
			"desc": "",
			"descMd": "",
			"envelopePic": "",
			"fresh": false,
			"id": 11979,
			"link": "https://mp.weixin.qq.com/s/B9nB2Wr_6lVzvSIGdoOIdA",
			"niceDate": "2020-02-14 00:00",
			"niceShareDate": "2020-02-16 13:55",
			"origin": "",
			"prefix": "",
			"projectLink": "",
			"publishTime": 1581609600000,
			"selfVisible": 0,
			"shareDate": 1581832541000,
			"shareUser": "",
			"superChapterId": 408,
			"superChapterName": "公众号",
			"tags": [{
				"name": "公众号",
				"url": "/wxarticle/list/408/1"
			}],
			"title": "谁告诉你 Flutter 会干掉原生开发？",
			"type": 0,
			"userId": -1,
			"visible": 1,
			"zan": 0
		}, {
			"apkLink": "",
			"audit": 1,
			"author": "鸿洋",
			"canEdit": false,
			"chapterId": 408,
			"chapterName": "鸿洋",
			"collect": false,
			"courseId": 13,
			"desc": "",
			"descMd": "",
			"envelopePic": "",
			"fresh": false,
			"id": 11978,
			"link": "https://mp.weixin.qq.com/s/cVjEeZVZYcjcfQWWyqccAg",
			"niceDate": "2020-02-12 00:00",
			"niceShareDate": "2020-02-16 13:55",
			"origin": "",
			"prefix": "",
			"projectLink": "",
			"publishTime": 1581436800000,
			"selfVisible": 0,
			"shareDate": 1581832502000,
			"shareUser": "",
			"superChapterId": 408,
			"superChapterName": "公众号",
			"tags": [{
				"name": "公众号",
				"url": "/wxarticle/list/408/1"
			}],
			"title": "你知道App为什么会Crash吗？",
			"type": 0,
			"userId": -1,
			"visible": 1,
			"zan": 0
		}, {
			"apkLink": "",
			"audit": 1,
			"author": "鸿洋",
			"canEdit": false,
			"chapterId": 408,
			"chapterName": "鸿洋",
			"collect": false,
			"courseId": 13,
			"desc": "",
			"descMd": "",
			"envelopePic": "",
			"fresh": false,
			"id": 11977,
			"link": "https://mp.weixin.qq.com/s/jgJUTEX3Ipw0apa7xLCXJw",
			"niceDate": "2020-02-10 00:00",
			"niceShareDate": "2020-02-16 13:54",
			"origin": "",
			"prefix": "",
			"projectLink": "",
			"publishTime": 1581264000000,
			"selfVisible": 0,
			"shareDate": 1581832480000,
			"shareUser": "",
			"superChapterId": 408,
			"superChapterName": "公众号",
			"tags": [{
				"name": "公众号",
				"url": "/wxarticle/list/408/1"
			}],
			"title": "AS Debug还能这么玩？我也是服",
			"type": 0,
			"userId": -1,
			"visible": 1,
			"zan": 0
		}, {
			"apkLink": "",
			"audit": 1,
			"author": "鸿洋",
			"canEdit": false,
			"chapterId": 408,
			"chapterName": "鸿洋",
			"collect": false,
			"courseId": 13,
			"desc": "",
			"descMd": "",
			"envelopePic": "",
			"fresh": false,
			"id": 11976,
			"link": "https://mp.weixin.qq.com/s/wSkFsHkXsLc5NhsHkwYdnw",
			"niceDate": "2020-02-05 00:00",
			"niceShareDate": "2020-02-16 13:54",
			"origin": "",
			"prefix": "",
			"projectLink": "",
			"publishTime": 1580832000000,
			"selfVisible": 0,
			"shareDate": 1581832454000,
			"shareUser": "",
			"superChapterId": 408,
			"superChapterName": "公众号",
			"tags": [{
				"name": "公众号",
				"url": "/wxarticle/list/408/1"
			}],
			"title": "LayoutManager高端玩家，实现花式表格",
			"type": 0,
			"userId": -1,
			"visible": 1,
			"zan": 0
		}],
		"offset": 0,
		"over": false,
		"pageCount": 45,
		"size": 20,
		"total": 889
	},
	"errorCode": 0,
	"errorMsg": ""
}
